{
    "/js/app.js": "/js/app.js?id=47727c35f005597adf1b",
    "/css/app.bundle.css": "/css/app.bundle.css?id=9b902e87461b9076cde7",
    "/js/jquery.min.js": "/js/jquery.min.js?id=a09e13ee94d51c524b7e",
    "/js/popper.min.js": "/js/popper.min.js?id=6b08ddc901000d51fa1f",
    "/js/holder.min.js": "/js/holder.min.js?id=6266d87979b32f717d29",
    "/js/jRespond.min.js": "/js/jRespond.min.js?id=b948023a2e9419d70e97",
    "/js/bootstrap.min.js": "/js/bootstrap.min.js?id=14d449eb8876fa55e1ef",
    "/js/owl.carousel.min.js": "/js/owl.carousel.min.js?id=4385be6280f3cf6980c0",
    "/js/app.bundle.js": "/js/app.bundle.js?id=650d37aba47bd6eea26e"
}